Alluvial Diagrams
…
#Load and make sure it looks OK
deseq_input

## # A tibble: 238,184 x 10
##       X1 baseMean log2FoldChange  lfcSE    stat   pvalue    padj comp 
##    <dbl>    <dbl>          <dbl>  <dbl>   <dbl>    <dbl>   <dbl> <chr>
##  1     1     5.11        -0.404   0.835  -0.484  0.628    0.853  I1H1 
##  2     2   223.           0.654   0.233   2.81   0.00501  0.0716 I1H1 
##  3     3     9.57         0.470   0.877   0.537  0.592    0.835  I1H1 
##  4     4    13.4         -0.0573  0.446  -0.129  0.898    0.967  I1H1 
##  5     5    26.0          0.184   0.312   0.589  0.556    0.817  I1H1 
##  6     6     0           NA      NA      NA     NA       NA      I1H1 
##  7     7   132.           0.150   0.245   0.611  0.541    0.808  I1H1 
##  8     8     8.09        -0.723   0.822  -0.880  0.379    0.700  I1H1 
##  9     9     1.93        -1.23    1.12   -1.11   0.268   NA      I1H1 
## 10    10     3.24        -1.68    1.05   -1.60   0.109   NA      I1H1 
## # ... with 238,174 more rows, and 2 more variables: gene <chr>, id <dbl>
…
pdf("output.pdf")
figure
dev.off()

dpylr is also great for post-filter analysis; e.g.the following example produces a list of 235 genes that go from upregulated (in comparison 1) to no differential expression (less than 1, comp 2) to upregulated (comp 3)

list <- filter(set,
        #filters the gene set from an analysis above to keep only genes that meet one of three conditions
        (comp==comp1 & class==1) | (comp==comp2 & class==otherwise) | (comp==comp3 & class==1)) %>% 
        group_by(gene) %>% 
        #Only keep genes that occur 3 times (i.e. meet all three conditions) and specify the data you want to keep
        filter(n()==3 & comp==comp1)
list

## # A tibble: 235 x 12
## # Groups:   gene [235]
##        X1 baseMean log2FoldChange lfcSE  stat   pvalue     padj comp  gene 
##     <dbl>    <dbl>          <dbl> <dbl> <dbl>    <dbl>    <dbl> <chr> <chr>
##  1 119167     7.66           2.48 0.729  3.40 6.62e- 4 5.27e- 3 H1U1  Vigu~
##  2 119371    34.3            4.92 0.553  8.90 5.80e-19 2.92e-17 H1U1  Vigu~
##  3 119515    77.8            3.15 0.478  6.58 4.63e-11 1.26e- 9 H1U1  Vigu~
##  4 119654   983.             1.04 0.210  4.96 7.10e- 7 1.16e- 5 H1U1  Vigu~
##  5 119795    10.3            2.37 0.681  3.48 5.09e- 4 4.20e- 3 H1U1  Vigu~
##  6 119885   214.             2.42 0.234 10.3  4.55e-25 3.14e-23 H1U1  Vigu~
##  7 120024    27.4            1.13 0.375  3.02 2.52e- 3 1.61e- 2 H1U1  Vigu~
##  8 120375   341.             2.07 0.187 11.1  1.35e-28 1.11e-26 H1U1  Vigu~
##  9 120792    43.4            1.35 0.271  4.97 6.69e- 7 1.10e- 5 H1U1  Vigu~
## 10 120860    28.5            4.28 0.535  8.00 1.25e-15 5.03e-14 H1U1  Vigu~
## # ... with 225 more rows, and 3 more variables: id <dbl>, sig <dbl>,
## #   class <chr>
…
