…
``` r
#Load and make sure it looks OK
deseq_input
```

    ## # A tibble: 20,424 x 10
    ##       X1 baseMean log2FoldChange  lfcSE    stat   pvalue    padj comp 
    ##    <dbl>    <dbl>          <dbl>  <dbl>   <dbl>    <dbl>   <dbl> <chr>
    ##  1     1     5.11        -0.404   0.835  -0.484  0.628    0.853  I1H1 
    ##  2     2   223.           0.654   0.233   2.81   0.00501  0.0716 I1H1 
    ##  3     3     9.57         0.470   0.877   0.537  0.592    0.835  I1H1 
    ##  4     4    13.4         -0.0573  0.446  -0.129  0.898    0.967  I1H1 
    ##  5     5    26.0          0.184   0.312   0.589  0.556    0.817  I1H1 
    ##  6     6     0           NA      NA      NA     NA       NA      I1H1 
    ##  7     7   132.           0.150   0.245   0.611  0.541    0.808  I1H1 
    ##  8     8     8.09        -0.723   0.822  -0.880  0.379    0.700  I1H1 
    ##  9     9     1.93        -1.23    1.12   -1.11   0.268   NA      I1H1 
    ## 10    10     3.24        -1.68    1.05   -1.60   0.109   NA      I1H1 
    ## # ... with 20,414 more rows, and 2 more variables: gene <chr>, id <dbl>
…
